{
  "kind": "collectionType",
  "collectionName": "news_categories",
  "info": {
    "singularName": "news-category",
    "pluralName": "news-categories",
    "displayName": "News Category",
    "description": ""
  },
  "options": {
    "draftAndPublish": true
  },
  "pluginOptions": {},
  "attributes": {
    "Title": {
      "type": "string"
    },
    "Description": {
      "type": "text"
    },
    "Thumbnail": {
      "type": "media",
      "multiple": false,
      "required": false,
      "allowedTypes": [
        "images",
        "files",
        "videos",
        "audios"
      ]
    },
    "news": {
      "type": "relation",
      "relation": "oneToOne",
      "target": "api::new.new"
    }
  }
}
